…
#### loading the library of tidyverse where the tidyverse package is stored to access
#### ggplot

library(tidyverse)
#### installing the package so one can reload it after every session

install.packages("tidyverse")

#### calling mpg dataframe A data frame is a rectangular collection of variables 
#### (in the columns) and observations (in the rows). mpg contains observations collected
#### by the US Environmental Protection Agency on 38 models of car.

mpg

#> # A tibble: 234 x 11
#>   manufacturer model displ  year   cyl trans      drv     cty   hwy fl    class 
#>   <chr>        <chr> <dbl> <int> <int> <chr>      <chr> <int> <int> <chr> <chr> 
#> 1 audi         a4      1.8  1999     4 auto(l5)   f        18    29 p     compa…
#> 2 audi         a4      1.8  1999     4 manual(m5) f        21    29 p     compa…
#> 3 audi         a4      2    2008     4 manual(m6) f        20    31 p     compa…
#> 4 audi         a4      2    2008     4 auto(av)   f        21    30 p     compa…
#> 5 audi         a4      2.8  1999     6 auto(l5)   f        16    26 p     compa…
#> 6 audi         a4      2.8  1999     6 manual(m5) f        18    26 p     compa…
#> # … with 228 more rows
…
